<svg width="80" height="80" viewBox="0 0 80 80" fill="none" xmlns="http://www.w3.org/2000/svg">
<g clip-path="url(#clip0)">
<path d="M73.2076 47.9023C72.5608 46.3024 70.7392 45.5291 69.1392 46.1763C67.539 46.8232 66.7662 48.6446 67.4131 50.2447L71.0936 59.3488L60.1627 54.5302C59.3714 54.1815 58.4709 54.176 57.6756 54.5154C53.94 56.1093 49.9381 56.9174 45.7813 56.9174C29.0511 56.9174 17.8126 43.8182 17.8126 31.5837C17.8126 17.6147 30.3593 6.24999 45.7813 6.24999C61.2033 6.24999 73.75 17.6147 73.75 31.5837C73.75 32.6735 73.6484 33.9785 73.4717 35.1638C73.217 36.8709 74.3943 38.461 76.1014 38.7157C77.8086 38.971 79.3987 37.7931 79.6532 36.086C79.8768 34.5876 80 32.9885 80 31.5837C80 23.0946 76.4053 15.1293 69.8776 9.15514C63.4273 3.2514 54.8697 0 45.7813 0C36.6929 0 28.1354 3.2514 21.6849 9.15498C15.8518 14.4937 12.3631 21.4231 11.6863 28.8948C4.34931 33.7535 0.000104189 41.5393 0.000104189 49.9257C0.000104189 55.1644 1.65057 60.135 4.79228 64.4127L0.227916 75.7036C-0.248802 76.8827 0.0366666 78.2331 0.949946 79.1184C1.5451 79.6956 2.32932 80 3.12572 80C3.55119 79.9998 3.98025 79.9131 4.38556 79.7344L17.5463 73.9328C20.8569 75.1652 24.3565 75.7891 27.9686 75.7891C28.0468 75.7891 28.1235 75.783 28.2002 75.7774C33.4247 75.7378 38.5039 74.3636 42.903 71.7919C46.8433 69.4881 50.0845 66.3235 52.3569 62.5861C54.5755 62.1877 56.7439 61.5858 58.8486 60.7813L75.6143 68.1719C76.0198 68.3505 76.4487 68.4375 76.8742 68.4375C77.6706 68.4374 78.455 68.133 79.0501 67.556C79.9634 66.6707 80.2489 65.3203 79.7721 64.1411L73.2076 47.9023ZM27.969 69.5311C27.9263 69.5311 27.8847 69.5358 27.8424 69.5375C24.6515 69.5213 21.5802 68.8941 18.7119 67.6703C17.9168 67.3308 17.0163 67.3363 16.2251 67.6852L8.90681 70.9111L11.2676 65.0713C11.704 63.9918 11.5038 62.7589 10.7485 61.8729C7.80556 58.4202 6.25009 54.2891 6.25009 49.9257C6.25009 44.9318 8.35087 40.2001 12.0265 36.6123C13.1709 42.8505 16.3998 48.818 21.2705 53.5058C27.3316 59.3391 35.3488 62.7185 44.0058 63.1253C39.9414 67.1261 34.1252 69.5311 27.969 69.5311Z" fill="#BE6A46"/>
<path d="M45.625 34.8437C47.3509 34.8437 48.75 33.4446 48.75 31.7187C48.75 29.9929 47.3509 28.5938 45.625 28.5938C43.8991 28.5938 42.5 29.9929 42.5 31.7187C42.5 33.4446 43.8991 34.8437 45.625 34.8437Z" fill="#BE6A46"/>
<path d="M58.125 34.8437C59.8509 34.8437 61.25 33.4446 61.25 31.7187C61.25 29.9929 59.8509 28.5938 58.125 28.5938C56.3991 28.5938 55 29.9929 55 31.7187C55 33.4446 56.3991 34.8437 58.125 34.8437Z" fill="#BE6A46"/>
<path d="M33.125 34.8437C34.8509 34.8437 36.25 33.4446 36.25 31.7187C36.25 29.9929 34.8509 28.5938 33.125 28.5938C31.3991 28.5938 30 29.9929 30 31.7187C30 33.4446 31.3991 34.8437 33.125 34.8437Z" fill="#BE6A46"/>
</g>
<defs>
<clipPath id="clip0">
<rect width="80" height="80" fill="white"/>
</clipPath>
</defs>
</svg>
