<svg width="35" height="33" viewBox="0 0 35 33" fill="none" xmlns="http://www.w3.org/2000/svg">
<rect width="35" height="33" fill="#6D7076"/>
<g clip-path="url(#clip0)">
<path d="M21.3309 10.3208H23.1567V7.14083C22.8417 7.0975 21.7584 7 20.4967 7C17.8642 7 16.0609 8.65583 16.0609 11.6992V14.5H13.1559V18.055H16.0609V27H19.6226V18.0558H22.4101L22.8526 14.5008H19.6217V12.0517C19.6226 11.0242 19.8992 10.3208 21.3309 10.3208Z" fill="white"/>
</g>
<defs>
<clipPath id="clip0">
<rect width="20" height="20" fill="white" transform="translate(8 7)"/>
</clipPath>
</defs>
</svg>
