<svg width="130" height="108" viewBox="0 0 130 130" fill="none" xmlns="http://www.w3.org/2000/svg">
<path d="M102.646 80.0846C100.095 74.7656 90.9675 67.3825 82.1493 60.2487C77.2309 56.2728 72.5834 52.5137 69.6206 49.5509C68.8784 48.8034 67.7681 48.565 66.7878 48.9171C64.9624 49.5781 63.8356 50.0871 62.9474 50.4825C61.5933 51.0891 61.1383 51.295 59.3128 51.4791C58.5056 51.5603 57.7799 51.9937 57.3303 52.6653C53.5006 58.3906 49.5356 57.9031 46.8868 57.015C46.0418 56.7334 45.8903 56.3703 45.809 56.0237C45.2403 53.6459 48.0949 48.11 51.7943 44.4103C60.5965 35.6028 65.1356 33.3981 74.7231 37.6828C85.5997 42.5469 96.4981 46.355 96.6065 46.3928C98.0312 46.8856 99.564 46.1381 100.057 44.7244C100.544 43.3106 99.8022 41.7669 98.3884 41.2741C98.28 41.2362 87.5984 37.504 76.9384 32.7319C64.5181 27.1797 57.7037 30.836 47.97 40.5753C44.265 44.2803 39.2328 51.7769 40.5328 57.275C41.0907 59.615 42.7375 61.3484 45.1857 62.1553C51.3228 64.1812 56.9235 62.2419 61.0944 56.7062C62.8169 56.4409 63.7541 56.0509 65.1623 55.4171C65.6713 55.1896 66.2672 54.9243 67.0582 54.6046C70.1566 57.5134 74.3382 60.8987 78.7419 64.4575C86.7044 70.8978 95.7341 78.1996 97.7653 82.4246C98.7675 84.51 97.6894 85.8696 96.9582 86.4925C95.8857 87.4134 94.4178 87.7059 93.6216 87.1478C92.7441 86.5466 91.6012 86.5087 90.6966 87.0503C89.7866 87.5919 89.2775 88.6156 89.3913 89.6666C89.5753 91.3891 87.9991 92.375 87.3166 92.7162C85.5832 93.5937 83.7741 93.4421 83.0969 92.8137C82.3385 92.1096 81.2497 91.9037 80.2857 92.2612C79.3216 92.6241 78.6497 93.5125 78.5522 94.5416C78.3897 96.3181 77.0735 98.0244 75.3563 98.6906C74.5276 99.0047 73.3251 99.1944 72.2472 98.2085C71.5757 97.6019 70.6438 97.3688 69.7719 97.5801C68.8891 97.7966 68.1794 98.436 67.8707 99.2863C67.7678 99.5572 67.5347 100.207 64.9997 100.207C63.196 100.207 59.9513 98.9885 58.3644 97.9376C56.4632 96.6863 44.541 87.7922 34.2441 79.1688C32.7978 77.9501 30.2953 75.3391 28.0853 73.0316C26.1244 70.9841 24.3316 69.1263 23.4107 68.3463C22.2569 67.3713 20.5507 67.5175 19.5919 68.666C18.6278 69.8088 18.7685 71.5206 19.9116 72.4847C20.7512 73.1944 22.3763 74.9113 24.1691 76.78C26.585 79.3041 29.0819 81.915 30.7612 83.3235C40.8472 91.7681 52.9697 100.884 55.3853 102.471C57.3787 103.782 61.6741 105.624 65 105.624C67.6703 105.624 69.7234 105.012 71.1478 103.815C73.0544 104.557 75.2212 104.562 77.3066 103.75C79.7712 102.796 81.7969 100.873 82.9453 98.5444C85.0794 98.9994 87.5225 98.6797 89.7432 97.5641C91.9153 96.47 93.486 94.7962 94.266 92.8406C96.4219 92.9544 98.6426 92.1906 100.479 90.6144C103.588 87.955 104.444 83.8168 102.646 80.0846Z" fill="#B3B3B6"/>
<path d="M54.1665 35.2073H29.7915C28.2965 35.2073 27.0831 36.4207 27.0831 37.9157C27.0831 39.4107 28.2965 40.6241 29.7915 40.6241H54.1665C55.6615 40.6241 56.875 39.4107 56.875 37.9157C56.875 36.4207 55.6615 35.2073 54.1665 35.2073Z" fill="#B3B3B6"/>
<path d="M110.581 74.3211C109.742 73.0807 108.062 72.7395 106.822 73.5845L98.903 78.9036C97.6627 79.7376 97.3321 81.4223 98.1665 82.6626C98.6918 83.4373 99.5477 83.8598 100.42 83.8598C100.935 83.8598 101.46 83.7136 101.926 83.3995L109.845 78.0804C111.085 77.2461 111.415 75.5616 110.581 74.3211Z" fill="#B3B3B6"/>
<path d="M93.7678 87.2455C91.8287 85.718 83.1566 76.8401 77.7941 71.2501C76.7594 70.1667 75.0425 70.1289 73.9644 71.1689C72.881 72.2035 72.8485 73.9205 73.8831 74.9986C75.2753 76.4501 87.5547 89.2498 90.4094 91.5032C90.9022 91.8932 91.4981 92.0829 92.0831 92.0829C92.8794 92.0829 93.6756 91.7254 94.2172 91.0482C95.1437 89.878 94.9434 88.1717 93.7678 87.2455Z" fill="#B3B3B6"/>
<path d="M82.9453 92.6782C79.7006 90.0836 71.5487 81.4223 69.7068 79.4182C68.6884 78.3132 66.9822 78.2482 65.8772 79.2557C64.7775 80.2685 64.7018 81.9857 65.7147 83.0854C65.8122 83.1882 75.5406 93.6913 79.5597 96.9088C80.0581 97.3041 80.6593 97.4991 81.2497 97.4991C82.0406 97.4991 82.8312 97.147 83.3675 96.4863C84.2996 95.316 84.1099 93.6098 82.9453 92.6782Z" fill="#B3B3B6"/>
<path d="M72.1663 98.1331C68.3041 94.8778 60.4013 86.4656 58.8576 84.8134C57.8338 83.7193 56.1166 83.6597 55.0279 84.6834C53.9338 85.7072 53.8795 87.4187 54.8979 88.5131C57.1188 90.8909 64.6804 98.9077 68.6726 102.277C69.1816 102.705 69.7991 102.916 70.4166 102.916C71.1857 102.916 71.9551 102.586 72.4913 101.952C73.4554 100.803 73.3091 99.0972 72.1663 98.1331Z" fill="#B3B3B6"/>
<path d="M31.655 30.5331C27.0128 26.1347 8.45 24.71 2.87092 24.3797C2.10184 24.3418 1.39217 24.5962 0.850586 25.1109C0.30875 25.62 0 26.335 0 27.0825V75.8325C0 77.3275 1.21342 78.5409 2.70842 78.5409H18.9584C20.1284 78.5409 21.1684 77.7881 21.5313 76.6722C21.9266 75.4588 31.2597 46.8156 32.4891 32.7322C32.5597 31.9087 32.2563 31.0962 31.655 30.5331ZM16.9813 73.1243H5.41658V29.9859C14.1213 30.6737 23.5138 32.1687 26.9263 33.8262C25.4909 45.6887 18.9963 66.765 16.9813 73.1243Z" fill="#B3B3B6"/>
<path d="M127.292 29.7908C106.026 29.7908 94.2281 35.2345 93.7353 35.462C93.0312 35.7924 92.5056 36.4045 92.289 37.1467C92.0724 37.8889 92.1806 38.6851 92.5869 39.3458C95.9344 44.7354 106.416 74.6679 108.431 81.9695C108.756 83.1448 109.823 83.9573 111.042 83.9573H127.292C128.787 83.9573 130 82.7439 130 81.2489V32.4989C130 30.9986 128.787 29.7908 127.292 29.7908ZM124.583 78.5408H113.067C110.5 70.1773 102.917 48.3699 98.6862 39.3567C102.819 37.9539 111.697 35.5433 124.583 35.2401V78.5408Z" fill="#B3B3B6"/>
</svg>
