<svg width="67" height="75" viewBox="0 0 67 75" fill="none" xmlns="http://www.w3.org/2000/svg">
<path d="M33.5 8.93555C32.2855 8.93555 31.3027 7.95278 31.3027 6.73828V2.19727C31.3027 0.982764 32.2855 0 33.5 0C34.7145 0 35.6973 0.982764 35.6973 2.19727V6.73828C35.6973 7.95278 34.7145 8.93555 33.5 8.93555Z" fill="white"/>
<path d="M54.4322 21.0204C53.8249 19.969 54.1854 18.6257 55.2369 18.0185L59.0413 15.8213C60.0884 15.2097 61.4339 15.5702 62.0433 16.6259C62.6506 17.6774 62.2901 19.0206 61.2386 19.6278L57.4341 21.8251C56.3863 22.4303 55.0398 22.0728 54.4322 21.0204Z" fill="white"/>
<path d="M4.95688 49.5849C4.34956 48.5334 4.71005 47.1902 5.76152 46.583L9.56601 44.3857C10.6088 43.7764 11.9585 44.1369 12.5679 45.1904C13.1752 46.2418 12.8147 47.5851 11.7633 48.1923L7.95878 50.3895C6.91113 50.9948 5.56464 50.6372 4.95688 49.5849Z" fill="white"/>
<path d="M45.585 12.1735C44.5335 11.5662 44.173 10.2231 44.7804 9.1716L46.9776 5.36711C47.585 4.3092 48.9281 3.9531 49.9795 4.56247C51.031 5.1698 51.3915 6.51291 50.7842 7.56438L48.5869 11.3689C47.9781 12.4231 46.6308 12.7776 45.585 12.1735Z" fill="white"/>
<path d="M18.4132 11.3689L16.2159 7.56438C15.6086 6.51291 15.9691 5.16965 17.0206 4.56247C18.0656 3.9531 19.4153 4.3092 20.0225 5.36711L22.2197 9.1716C22.827 10.2231 22.4665 11.5663 21.4151 12.1735C20.3673 12.7788 19.0209 12.4212 18.4132 11.3689Z" fill="white"/>
<path d="M59.0409 50.3895L55.2364 48.1923C54.1849 47.5849 53.8244 46.2418 54.4317 45.1904C55.0391 44.1369 56.3844 43.7764 57.4336 44.3857L61.2381 46.583C62.2896 47.1903 62.6501 48.5334 62.0428 49.5849C61.434 50.6391 60.0866 50.9936 59.0409 50.3895Z" fill="white"/>
<path d="M9.56601 21.8251L5.76152 19.6278C4.71005 19.0205 4.34956 17.6774 4.95688 16.6259C5.56201 15.5702 6.90527 15.2097 7.95878 15.8213L11.7633 18.0185C12.8147 18.6259 13.1752 19.969 12.5679 21.0204C11.9591 22.0747 10.6118 22.4292 9.56601 21.8251Z" fill="white"/>
<path d="M64.2617 35.3027H59.8672C58.6527 35.3027 57.6699 34.32 57.6699 33.1055C57.6699 31.891 58.6527 30.9082 59.8672 30.9082H64.2617C65.4762 30.9082 66.459 31.891 66.459 33.1055C66.459 34.32 65.4762 35.3027 64.2617 35.3027Z" fill="white"/>
<path d="M7.13281 35.3027H2.73828C1.52378 35.3027 0.541016 34.32 0.541016 33.1055C0.541016 31.891 1.52378 30.9082 2.73828 30.9082H7.13281C8.34731 30.9082 9.33008 31.891 9.33008 33.1055C9.33008 34.32 8.34731 35.3027 7.13281 35.3027Z" fill="white"/>
<path d="M33.4999 75C38.3472 75 42.2889 71.0583 42.2889 66.2109H24.7256C24.805 71.1505 28.6225 75 33.4999 75Z" fill="white"/>
<path d="M33.4998 13.3324C21.1989 13.3103 14.9687 23.4532 13.9647 29.9855C13.1665 35.1804 14.3853 40.3603 17.398 44.5702C21.4104 50.176 23.6903 55.9135 24.3924 61.6698H42.589C43.2552 55.7364 45.4672 50.0303 49.2733 45.0164C51.8912 41.5641 53.2751 37.4464 53.2751 33.1055C53.2751 24.8088 46.7961 13.3563 33.4998 13.3324ZM39.4478 34.659L35.697 38.4098V46.2891C35.697 47.5036 34.7143 48.4863 33.4998 48.4863C32.2852 48.4863 31.3025 47.5036 31.3025 46.2891V38.4098L27.5518 34.6591C26.6935 33.8008 26.6935 32.4103 27.5518 31.552C28.41 30.6938 29.8006 30.6938 30.6588 31.552L33.4998 34.3929L36.3408 31.5519C37.1991 30.6936 38.5896 30.6936 39.4479 31.5519C40.3061 32.4101 40.3062 33.8007 39.4478 34.659Z" fill="white"/>
</svg>
