<svg width="35" height="33" viewBox="0 0 35 33" fill="none" xmlns="http://www.w3.org/2000/svg">
<rect width="35" height="33" fill="#6D7076"/>
<g clip-path="url(#clip0)">
<path d="M21.5862 7.79004H12.4138C9.42858 7.79004 7 10.1934 7 13.1475V22.2246C7 25.1787 9.42858 27.582 12.4138 27.582H21.5863C24.5714 27.582 27 25.1787 27 22.2246V13.1475C27 10.1934 24.5714 7.79004 21.5862 7.79004V7.79004ZM17 23.0977C13.9845 23.0977 11.5314 20.6701 11.5314 17.686C11.5314 14.7019 13.9845 12.2743 17 12.2743C20.0154 12.2743 22.4686 14.7019 22.4686 17.686C22.4686 20.6701 20.0154 23.0977 17 23.0977ZM22.5993 13.5506C21.7082 13.5506 20.9834 12.8333 20.9834 11.9515C20.9834 11.0696 21.7082 10.3522 22.5993 10.3522C23.4904 10.3522 24.2154 11.0696 24.2154 11.9515C24.2154 12.8333 23.4904 13.5506 22.5993 13.5506Z" fill="white"/>
<path d="M17 13.4346C14.6312 13.4346 12.7039 15.3417 12.7039 17.686C12.7039 20.0301 14.6312 21.9374 17 21.9374C19.3689 21.9374 21.2961 20.0301 21.2961 17.686C21.2961 15.3417 19.3689 13.4346 17 13.4346Z" fill="white"/>
<path d="M22.5993 11.5127C22.3549 11.5127 22.1559 11.7096 22.1559 11.9515C22.1559 12.1934 22.3549 12.3903 22.5993 12.3903C22.8439 12.3903 23.0429 12.1936 23.0429 11.9515C23.0429 11.7094 22.8439 11.5127 22.5993 11.5127Z" fill="white"/>
</g>
<defs>
<clipPath id="clip0">
<rect width="20" height="19.792" fill="white" transform="translate(7 7.79004)"/>
</clipPath>
</defs>
</svg>
