<svg width="118" height="118" viewBox="0 0 118 118" fill="none" xmlns="http://www.w3.org/2000/svg">
<path d="M24.6659 95.6587C23.9833 96.3822 23.6022 97.3386 23.6 98.3333V114.067C23.6 116.239 25.361 118 27.5333 118H49.1667C51.339 118 53.1 116.239 53.1 114.067V98.3333C53.1 96.161 51.339 94.4 49.1667 94.4V90.74C49.2269 86.0823 47.7074 81.5416 44.8558 77.8584C43.1839 75.6595 40.9054 73.9976 38.3008 73.0774C34.1587 71.3371 30.3494 68.8924 27.0417 65.8519C23.9714 63.3232 19.6097 63.0965 16.2938 65.2933L12.0399 55.3538C11.1353 53.3046 9.20618 51.8937 6.97921 51.6525C4.75224 51.4113 2.56577 52.3766 1.24342 54.1846C-0.0789217 55.9926 -0.336247 58.3688 0.56838 60.418L8.27575 77.3726C9.31555 79.6678 10.7621 81.756 12.5454 83.5361L24.6659 95.6587ZM49.1667 114.067H27.5333V98.3333H49.1667V114.067ZM4.14771 58.7915C3.81879 58.0679 3.88001 57.2267 4.31023 56.5583C4.74046 55.8899 5.48076 55.4858 6.27565 55.4856C7.21108 55.4848 8.05649 56.043 8.42325 56.9035L12.8227 67.1636C13.9909 69.901 15.6748 72.3882 17.7826 74.4895L26.7663 83.4752C27.2601 83.9864 27.9913 84.1914 28.6789 84.0115C29.3666 83.8315 29.9035 83.2945 30.0835 82.6069C30.2635 81.9193 30.0585 81.1881 29.5472 80.6943L20.5635 71.7086C19.6601 70.8074 18.8479 69.8193 18.1386 68.7586C20.0272 67.3053 22.6694 67.3493 24.5086 68.8648C28.185 72.2387 32.4341 74.9294 37.0559 76.8101C38.9393 77.4954 40.5827 78.7138 41.7858 80.3167C44.0777 83.3028 45.2927 86.9762 45.2333 90.74V94.4H28.971L15.3262 80.7553C13.8771 79.3081 12.7011 77.6112 11.8551 75.7462L4.14771 58.7915Z" fill="#B3B3B6"/>
<path d="M43.2666 104.233H41.2999C40.2138 104.233 39.3333 105.114 39.3333 106.2C39.3333 107.286 40.2138 108.167 41.2999 108.167H43.2666C44.3527 108.167 45.2332 107.286 45.2332 106.2C45.2332 105.114 44.3527 104.233 43.2666 104.233Z" fill="#B3B3B6"/>
<path d="M111.724 51.5522C109.215 51.5506 106.948 53.0467 105.962 55.3538L101.718 65.256C98.3906 63.07 94.0267 63.3093 90.9584 65.846C87.6507 68.8865 83.8413 71.3312 79.6992 73.0715C77.0947 73.9917 74.8162 75.6536 73.1443 77.8525C70.2914 81.5373 68.7718 86.0803 68.8334 90.74V94.4C66.661 94.4 64.9 96.161 64.9 98.3333V114.067C64.9 116.239 66.661 118 68.8334 118H90.4667C92.639 118 94.4 116.239 94.4 114.067V98.3333C94.3979 97.3387 94.0167 96.3822 93.3341 95.6587L105.455 83.5361C107.238 81.756 108.684 79.6678 109.724 77.3726L117.432 60.418C118.315 58.478 118.152 56.2218 116.999 54.429C115.846 52.6362 113.86 51.5525 111.728 51.5522H111.724ZM90.4667 114.067H68.8334V98.3333H90.4667V114.067ZM113.852 58.7915L106.145 75.7462C105.299 77.6112 104.123 79.3082 102.674 80.7553L89.0291 94.4H72.7667V90.74C72.7073 86.9762 73.9223 83.3029 76.2143 80.3167C77.415 78.7156 79.0546 77.4974 80.9343 76.8101C85.557 74.9299 89.8068 72.2392 93.4836 68.8648C95.3207 67.3378 97.9703 67.2864 99.8654 68.7409C99.154 69.8094 98.3377 70.8043 97.4287 71.7106L88.445 80.6963C87.6996 81.468 87.7103 82.6946 88.4689 83.4532C89.2275 84.2118 90.4541 84.2225 91.2258 83.4771L100.21 74.4914C102.317 72.3902 104.001 69.903 105.169 67.1656L109.569 56.9035C109.937 56.0441 110.782 55.487 111.717 55.4876C112.511 55.4878 113.252 55.8919 113.682 56.5603C114.112 57.2287 114.173 58.0699 113.844 58.7935L113.852 58.7915Z" fill="#B3B3B6"/>
<path d="M76.6999 104.233H74.7333C73.6471 104.233 72.7666 105.114 72.7666 106.2C72.7666 107.286 73.6471 108.167 74.7333 108.167H76.6999C77.7861 108.167 78.6666 107.286 78.6666 106.2C78.6666 105.114 77.7861 104.233 76.6999 104.233Z" fill="#B3B3B6"/>
<path d="M80.7789 -1.12446e-06C72.1461 -0.0521818 64.0254 4.09029 59 11.1097C53.9746 4.09029 45.8539 -0.0521818 37.2211 -1.12446e-06C21.5409 -1.12446e-06 11.8 9.93756 11.8 25.9364C11.759 29.8341 12.4253 33.7069 13.7667 37.3667H3.93334C2.84718 37.3667 1.96667 38.2472 1.96667 39.3333C1.96667 40.4195 2.84718 41.3 3.93334 41.3H15.5681C18.4073 45.9438 22.0251 50.0639 26.2629 53.4796C27.2698 54.3764 28.2472 55.2496 29.1617 56.1208C35.8484 62.4948 56.8721 79.4769 57.7649 80.1967C58.4856 80.7783 59.5144 80.7783 60.2351 80.1967C61.1279 79.4769 82.1536 62.4967 88.8383 56.1208C89.7528 55.2496 90.7302 54.3764 91.7371 53.4796C95.9749 50.0639 99.5928 45.9438 102.432 41.3H114.067C115.153 41.3 116.033 40.4195 116.033 39.3333C116.033 38.2472 115.153 37.3667 114.067 37.3667H104.243C105.581 33.7062 106.244 29.8335 106.2 25.9364C106.2 9.93756 96.4591 -1.12446e-06 80.7789 -1.12446e-06ZM15.7333 25.9364C15.7333 12.1579 23.7652 3.93333 37.2211 3.93333C45.5364 3.90699 53.2098 8.39897 57.2575 15.6625C57.6304 16.267 58.2898 16.635 59 16.635C59.7102 16.635 60.3696 16.267 60.7425 15.6625C64.7902 8.39897 72.4637 3.90699 80.7789 3.93333C94.2348 3.93333 102.267 12.1579 102.267 25.9364C102.326 29.8662 101.545 33.7633 99.9755 37.3667H88.5C87.702 37.367 86.9833 37.8495 86.6808 38.588L84.49 30.918C84.247 30.0816 83.4828 29.5046 82.6118 29.5H82.6C81.7312 29.4999 80.9653 30.07 80.7159 30.9022L77.0186 43.2293L72.7234 23.189C72.5323 22.2942 71.7493 21.6494 70.8344 21.6334C69.9196 21.6174 69.1146 22.2345 68.8923 23.1221L65.3307 37.3667H55.0667C54.2687 37.367 53.55 37.8495 53.2475 38.588L51.0566 30.918C50.8136 30.0816 50.0495 29.5046 49.1785 29.5C48.2929 29.4553 47.4992 30.0424 47.2826 30.9022L43.5853 43.2293L39.2901 23.189C39.0989 22.2938 38.3154 21.6488 37.4001 21.6333C36.4799 21.6004 35.6658 22.2249 35.459 23.1221L31.8974 37.3667H18.0245C16.4554 33.7633 15.6742 29.8662 15.7333 25.9364ZM89.1175 50.5433C88.0791 51.4716 87.0683 52.3723 86.1223 53.275C80.4721 58.6657 63.7003 72.3242 59 76.1356C54.2997 72.3242 37.5299 58.6657 31.8777 53.275C30.9317 52.3723 29.9209 51.4716 28.8825 50.5433C25.6058 47.8452 22.6878 44.7389 20.1996 41.3H33.4333C34.3354 41.3 35.1218 40.6863 35.341 39.8112L37.2192 32.2986L41.3492 51.5444C41.5371 52.4228 42.2963 53.0622 43.1939 53.098C44.0894 53.1255 44.8935 52.553 45.1606 51.6978L49.1313 38.4641L51.2199 45.7742C51.4568 46.6034 52.2064 47.1814 53.0685 47.2C53.9223 47.1918 54.6818 46.6562 54.9762 45.8548L56.4846 41.3H66.8667C67.7687 41.3 68.5551 40.6863 68.7743 39.8112L70.6525 32.2986L74.7825 51.5444C74.9704 52.4228 75.7297 53.0622 76.6272 53.098H76.7C77.5688 53.0981 78.3347 52.5281 78.5841 51.6958L82.5548 38.4621L84.6434 45.7722C84.8803 46.6014 85.6299 47.1795 86.492 47.198C87.3433 47.1821 88.0989 46.6493 88.3997 45.8528L89.918 41.3H97.8004C95.3122 44.7389 92.3942 47.8452 89.1175 50.5433Z" fill="#B3B3B6"/>
</svg>
