<svg width="60" height="60" viewBox="0 0 60 60" fill="none" xmlns="http://www.w3.org/2000/svg">
<path d="M25.7949 43.8866C25.7949 52.6023 32.8606 59.668 41.5763 59.668C50.2921 59.668 57.3575 52.6025 57.3575 43.8866C57.3575 35.1706 50.2921 28.1053 41.5763 28.1053C32.8604 28.1053 25.7949 35.1708 25.7949 43.8866ZM35.4121 37.7233C35.8028 37.3326 36.3448 37.1078 36.8973 37.1078C37.4499 37.1078 37.9919 37.3326 38.3848 37.7233C38.7757 38.1142 38.9984 38.6563 38.9984 39.2088C38.9984 39.7613 38.7757 40.3033 38.3848 40.6942C37.9919 41.0849 37.4521 41.3098 36.8973 41.3098C36.3448 41.3098 35.8028 41.0849 35.4121 40.6942C35.0212 40.3033 34.7963 39.7613 34.7963 39.2088C34.7963 38.6563 35.0212 38.1142 35.4121 37.7233ZM47.74 50.0492C47.3491 50.4401 46.807 50.6649 46.2545 50.6649C45.702 50.6649 45.16 50.4401 44.7693 50.0492C44.3763 49.6585 44.1535 49.1185 44.1535 48.5639C44.1535 48.0112 44.3763 47.4694 44.7693 47.0785C45.16 46.6876 45.702 46.4629 46.2545 46.4629C46.807 46.4629 47.3491 46.6876 47.74 47.0785C48.1309 47.4694 48.3555 48.0112 48.3555 48.5639C48.3555 49.1187 48.1309 49.6587 47.74 50.0492ZM47.7117 37.751C48.5321 38.5714 48.5321 39.9017 47.7117 40.7221L38.4121 50.0217C38.0018 50.4318 37.4642 50.6371 36.9264 50.6371C36.3887 50.6371 35.8511 50.432 35.4408 50.0217C34.6204 49.2013 34.6204 47.871 35.4408 47.0506L44.7404 37.751C45.5612 36.9308 46.8911 36.9308 47.7117 37.751Z" fill="white"/>
<path d="M21.5924 43.8865C21.5924 32.8679 30.5569 23.9034 41.5754 23.9034C41.9407 23.9034 42.3035 23.9139 42.6639 23.9333V2.10081C42.6639 0.940606 41.7233 0 40.5631 0H4.74436C3.58416 0 2.64355 0.940606 2.64355 2.10081V57.899C2.64355 59.0592 3.58416 59.9998 4.74436 59.9998H29.7714C24.8157 56.3598 21.5924 50.4929 21.5924 43.8865ZM14.5239 11.1598H29.4035C30.5637 11.1598 31.5043 12.1004 31.5043 13.2606C31.5043 14.4208 30.5637 15.3614 29.4035 15.3614H14.5239C13.3637 15.3614 12.4231 14.4208 12.4231 13.2606C12.4231 12.1004 13.3637 11.1598 14.5239 11.1598ZM14.5239 22.3194H29.4035C30.5637 22.3194 31.5043 23.26 31.5043 24.4202C31.5043 25.5804 30.5637 26.521 29.4035 26.521H14.5239C13.3637 26.521 12.4231 25.5804 12.4231 24.4202C12.4229 23.26 13.3637 22.3194 14.5239 22.3194ZM18.2437 37.6806H14.5239C13.3637 37.6806 12.4231 36.74 12.4231 35.5798C12.4231 34.4196 13.3637 33.479 14.5239 33.479H18.2437C19.4039 33.479 20.3446 34.4196 20.3446 35.5798C20.3446 36.74 19.4039 37.6806 18.2437 37.6806Z" fill="white"/>
</svg>
