<svg width="35" height="33" viewBox="0 0 35 33" fill="none" xmlns="http://www.w3.org/2000/svg">
<rect width="35" height="33" fill="#323848"/>
<rect x="11.0078" y="15.9258" width="1.36719" height="1.35352" fill="#6D7076"/>
<g clip-path="url(#clip0_1826_1790)">
<path d="M12.1024 17.0332V17.0331H12.1026V16.7323C12.1026 16.5851 12.0724 16.4717 11.9085 16.4717C11.8298 16.4717 11.7769 16.5171 11.7553 16.5602H11.753V16.4855H11.5977V17.0331H11.7594V16.762C11.7594 16.6906 11.7723 16.6215 11.8565 16.6215C11.9395 16.6215 11.9408 16.703 11.9408 16.7665V17.0332H12.1024Z" fill="white"/>
<path d="M11.332 16.4855H11.494V17.0332H11.332V16.4855Z" fill="white"/>
<path d="M11.4141 16.2129C11.3623 16.2129 11.3203 16.257 11.3203 16.3114C11.3203 16.3658 11.3623 16.4108 11.4141 16.4108C11.4659 16.4108 11.5079 16.3658 11.5079 16.3114C11.5079 16.257 11.4659 16.2129 11.4141 16.2129V16.2129Z" fill="white"/>
</g>
<g clip-path="url(#clip1_1826_1790)">
<path d="M15.8476 19.2834L15.5168 24.1694C15.9901 24.1694 16.1951 23.9559 16.441 23.6995L18.6601 21.4726L23.2585 25.0085C24.1018 25.502 24.696 25.2421 24.9235 24.1939L27.9418 9.34338L27.9426 9.3425C28.2101 8.0335 27.4918 7.52163 26.6701 7.84275L8.92848 14.9749C7.71765 15.4684 7.73598 16.1771 8.72265 16.4982L13.2585 17.9796L23.7943 11.0575C24.2901 10.7128 24.741 10.9035 24.3701 11.2483L15.8476 19.2834Z" fill="white"/>
</g>
<defs>
<clipPath id="clip0_1826_1790">
<rect width="0.78125" height="0.820312" fill="white" transform="translate(11.3203 16.2129)"/>
</clipPath>
<clipPath id="clip1_1826_1790">
<rect width="20" height="21" fill="white" transform="translate(8 6)"/>
</clipPath>
</defs>
</svg>
